module gitlab.com/lookoutpoint/photos

go 1.22.7

toolchain go1.22.9

require (
	cloud.google.com/go/cloudtasks v1.13.2
	cloud.google.com/go/storage v1.47.0
	github.com/coreos/go-oidc v2.2.1+incompatible
	github.com/disintegration/imaging v1.6.2
	github.com/onsi/ginkgo v1.16.5
	github.com/onsi/gomega v1.35.1
	github.com/sirupsen/logrus v1.9.3
	gitlab.com/lookoutpoint/photometadata v1.7.0
	gitlab.com/lookoutpoint/storage v0.5.0
	go.mongodb.org/mongo-driver v1.17.1
	golang.org/x/crypto v0.29.0
	golang.org/x/sync v0.9.0
	google.golang.org/genproto v0.0.0-20241113202542-65e8d215514f
)

require (
	cel.dev/expr v0.18.0 // indirect
	cloud.google.com/go v0.116.0 // indirect
	cloud.google.com/go/auth v0.10.2 // indirect
	cloud.google.com/go/auth/oauth2adapt v0.2.5 // indirect
	cloud.google.com/go/compute/metadata v0.5.2 // indirect
	cloud.google.com/go/iam v1.2.2 // indirect
	cloud.google.com/go/monitoring v1.21.2 // indirect
	github.com/GoogleCloudPlatform/opentelemetry-operations-go/detectors/gcp v1.25.0 // indirect
	github.com/GoogleCloudPlatform/opentelemetry-operations-go/exporter/metric v0.49.0 // indirect
	github.com/GoogleCloudPlatform/opentelemetry-operations-go/internal/resourcemapping v0.49.0 // indirect
	github.com/census-instrumentation/opencensus-proto v0.4.1 // indirect
	github.com/cespare/xxhash/v2 v2.3.0 // indirect
	github.com/cncf/xds/go v0.0.0-20240905190251-b4127c9b8d78 // indirect
	github.com/envoyproxy/go-control-plane v0.13.1 // indirect
	github.com/envoyproxy/protoc-gen-validate v1.1.0 // indirect
	github.com/felixge/httpsnoop v1.0.4 // indirect
	github.com/fsnotify/fsnotify v1.7.0 // indirect
	github.com/go-logr/logr v1.4.2 // indirect
	github.com/go-logr/stdr v1.2.2 // indirect
	github.com/golang/groupcache v0.0.0-20210331224755-41bb18bfe9da // indirect
	github.com/golang/snappy v0.0.4 // indirect
	github.com/google/go-cmp v0.6.0 // indirect
	github.com/google/s2a-go v0.1.8 // indirect
	github.com/google/uuid v1.6.0 // indirect
	github.com/googleapis/enterprise-certificate-proxy v0.3.4 // indirect
	github.com/googleapis/gax-go/v2 v2.14.0 // indirect
	github.com/klauspost/compress v1.17.11 // indirect
	github.com/montanaflynn/stats v0.7.1 // indirect
	github.com/nxadm/tail v1.4.11 // indirect
	github.com/planetscale/vtprotobuf v0.6.1-0.20240319094008-0393e58bdf10 // indirect
	github.com/pquerna/cachecontrol v0.2.0 // indirect
	github.com/xdg-go/pbkdf2 v1.0.0 // indirect
	github.com/xdg-go/scram v1.1.2 // indirect
	github.com/xdg-go/stringprep v1.0.4 // indirect
	github.com/youmark/pkcs8 v0.0.0-20240726163527-a2c0da244d78 // indirect
	go.opencensus.io v0.24.0 // indirect
	go.opentelemetry.io/contrib/detectors/gcp v1.32.0 // indirect
	go.opentelemetry.io/contrib/instrumentation/google.golang.org/grpc/otelgrpc v0.57.0 // indirect
	go.opentelemetry.io/contrib/instrumentation/net/http/otelhttp v0.57.0 // indirect
	go.opentelemetry.io/otel v1.32.0 // indirect
	go.opentelemetry.io/otel/metric v1.32.0 // indirect
	go.opentelemetry.io/otel/sdk v1.32.0 // indirect
	go.opentelemetry.io/otel/sdk/metric v1.32.0 // indirect
	go.opentelemetry.io/otel/trace v1.32.0 // indirect
	golang.org/x/image v0.22.0 // indirect
	golang.org/x/net v0.31.0 // indirect
	golang.org/x/oauth2 v0.24.0 // indirect
	golang.org/x/sys v0.27.0 // indirect
	golang.org/x/text v0.20.0 // indirect
	golang.org/x/time v0.8.0 // indirect
	google.golang.org/api v0.206.0 // indirect
	google.golang.org/genproto/googleapis/api v0.0.0-20241113202542-65e8d215514f // indirect
	google.golang.org/genproto/googleapis/rpc v0.0.0-20241113202542-65e8d215514f // indirect
	google.golang.org/grpc v1.68.0 // indirect
	google.golang.org/grpc/stats/opentelemetry v0.0.0-20241028142157-ada6787961b3 // indirect
	google.golang.org/protobuf v1.35.2 // indirect
	gopkg.in/square/go-jose.v2 v2.6.0 // indirect
	gopkg.in/tomb.v1 v1.0.0-20141024135613-dd632973f1e7 // indirect
	gopkg.in/yaml.v3 v3.0.1 // indirect
)
